…
##### Rounding the number of sports balls to nearest integer

``` r
trash_wheel$sports_balls <- round(trash_wheel$sports_balls)
trash_wheel
```

    ## # A tibble: 345 × 14
    ##    dumpster month  year date                weight_tons volume_cubic_yards
    ##       <dbl> <chr> <dbl> <dttm>                    <dbl>              <dbl>
    ##  1        1 May    2014 2014-05-16 00:00:00        4.31                 18
    ##  2        2 May    2014 2014-05-16 00:00:00        2.74                 13
    ##  3        3 May    2014 2014-05-16 00:00:00        3.45                 15
    ##  4        4 May    2014 2014-05-17 00:00:00        3.1                  15
    ##  5        5 May    2014 2014-05-17 00:00:00        4.06                 18
    ##  6        6 May    2014 2014-05-20 00:00:00        2.71                 13
    ##  7        7 May    2014 2014-05-21 00:00:00        1.91                  8
    ##  8        8 May    2014 2014-05-28 00:00:00        3.7                  16
    ##  9        9 June   2014 2014-06-05 00:00:00        2.52                 14
    ## 10       10 June   2014 2014-06-11 00:00:00        3.76                 18
    ## # … with 335 more rows, and 8 more variables: plastic_bottles <dbl>,
    ## #   polystyrene <dbl>, cigarette_butts <dbl>, glass_bottles <dbl>,
    ## #   grocery_bags <dbl>, chip_bags <dbl>, sports_balls <dbl>,
    ## #   homes_powered <dbl>
…
    ## ── Column specification ────────────────────────────────────────────────────────
    ## Delimiter: ","
    ## dbl  (8): prez_gop, gov_gop, sen_gop, rep_gop, prez_dem, gov_dem, sen_dem, r...
    ## date (1): mon

    ## 
    ## ℹ Use `spec()` to retrieve the full column specification for this data.
    ## ℹ Specify the column types or set `show_col_types = FALSE` to quiet this message.

``` r
    pols_df = select(pols_df, -prez_dem, -prez_gop, -day)
    pols_df
```

    ## # A tibble: 822 × 9
    ##    year  month     gov_gop sen_gop rep_gop gov_dem sen_dem rep_dem president
    ##    <chr> <chr>       <dbl>   <dbl>   <dbl>   <dbl>   <dbl>   <dbl> <chr>    
    ##  1 1947  January        23      51     253      23      45     198 dem      
    ##  2 1947  February       23      51     253      23      45     198 dem      
    ##  3 1947  March          23      51     253      23      45     198 dem      
    ##  4 1947  April          23      51     253      23      45     198 dem      
    ##  5 1947  May            23      51     253      23      45     198 dem      
    ##  6 1947  June           23      51     253      23      45     198 dem      
    ##  7 1947  July           23      51     253      23      45     198 dem      
    ##  8 1947  August         23      51     253      23      45     198 dem      
    ##  9 1947  September      23      51     253      23      45     198 dem      
    ## 10 1947  October        23      51     253      23      45     198 dem      
    ## # … with 812 more rows
…
    ## ── Column specification ────────────────────────────────────────────────────────
    ## Delimiter: ","
    ## chr (1): date
    ## dbl (1): close

    ## 
    ## ℹ Use `spec()` to retrieve the full column specification for this data.
    ## ℹ Specify the column types or set `show_col_types = FALSE` to quiet this message.

``` r
  janitor::clean_names(snp_df)  
```

    ## # A tibble: 787 × 2
    ##    date    close
    ##    <chr>   <dbl>
    ##  1 7/1/15  2080.
    ##  2 6/1/15  2063.
    ##  3 5/1/15  2107.
    ##  4 4/1/15  2086.
    ##  5 3/2/15  2068.
    ##  6 2/2/15  2104.
    ##  7 1/2/15  1995.
    ##  8 12/1/14 2059.
    ##  9 11/3/14 2068.
    ## 10 10/1/14 2018.
    ## # … with 777 more rows

``` r
snp_df=  separate(snp_df, "date", into =  c("month", "day", "year"), convert = TRUE) %>% 
  mutate( 
    year, year = if_else( year<= 15, year + 2000, year + 1900)) %>% 
      arrange(year, month, .by_group = TRUE) %>% 
 mutate(
    year = as.character(year),  
      month = month.name[as.numeric(month)], 
      month = str_to_lower(month))
snp_df
```

    ## # A tibble: 787 × 4
    ##    month       day year  close
    ##    <chr>     <int> <chr> <dbl>
    ##  1 january       3 1950   17.0
    ##  2 february      1 1950   17.2
    ##  3 march         1 1950   17.3
    ##  4 april         3 1950   18.0
    ##  5 may           1 1950   18.8
    ##  6 june          1 1950   17.7
    ##  7 july          3 1950   17.8
    ##  8 august        1 1950   18.4
    ##  9 september     1 1950   19.5
    ## 10 october       2 1950   19.5
    ## # … with 777 more rows
…
    ## Rows: 68 Columns: 13

    ## ── Column specification ────────────────────────────────────────────────────────
    ## Delimiter: ","
    ## dbl (13): Year, Jan, Feb, Mar, Apr, May, Jun, Jul, Aug, Sep, Oct, Nov, Dec

    ## 
    ## ℹ Use `spec()` to retrieve the full column specification for this data.
    ## ℹ Specify the column types or set `show_col_types = FALSE` to quiet this message.

``` r
unemployment_df
```

    ## # A tibble: 816 × 3
    ##    year  month     unemployment
    ##    <chr> <chr>            <dbl>
    ##  1 1948  january            3.4
    ##  2 1948  february           3.8
    ##  3 1948  march              4  
    ##  4 1948  april              3.9
    ##  5 1948  may                3.5
    ##  6 1948  june               3.6
    ##  7 1948  july               3.6
    ##  8 1948  august             3.9
    ##  9 1948  september          3.8
    ## 10 1948  oct                3.7
    ## # … with 806 more rows
…
    ## Joining, by = c("year", "month")

``` r
five_thirty_eight_joined = left_join(snp_pol_combo, unemployment_df) 
```

    ## Joining, by = c("year", "month")

``` r
five_thirty_eight_joined
```

    ## # A tibble: 822 × 12
    ##    year  month   gov_gop sen_gop rep_gop gov_dem sen_dem rep_dem president   day
    ##    <chr> <chr>     <dbl>   <dbl>   <dbl>   <dbl>   <dbl>   <dbl> <chr>     <int>
    ##  1 1947  January      23      51     253      23      45     198 dem          NA
    ##  2 1947  Februa…      23      51     253      23      45     198 dem          NA
    ##  3 1947  March        23      51     253      23      45     198 dem          NA
    ##  4 1947  April        23      51     253      23      45     198 dem          NA
    ##  5 1947  May          23      51     253      23      45     198 dem          NA
    ##  6 1947  June         23      51     253      23      45     198 dem          NA
    ##  7 1947  July         23      51     253      23      45     198 dem          NA
    ##  8 1947  August       23      51     253      23      45     198 dem          NA
    ##  9 1947  Septem…      23      51     253      23      45     198 dem          NA
    ## 10 1947  October      23      51     253      23      45     198 dem          NA
    ## # … with 812 more rows, and 2 more variables: close <dbl>, unemployment <dbl>
…
